{"query":"Monster Energy","results":[{"barcode":null,"product_name":"Energy Drink Papillon","product_brand":"Monster Energy Can","current_price":4.3,"product_size":"500mL","url":"https://www.coles.com.au/product/8926814"},{"barcode":null,"product_name":"Energy Ultra Can","product_brand":"Monster","current_price":4.3,"product_size":"500mL","url":"https://www.coles.com.au/product/2787147"},{"barcode":null,"product_name":"Energy Ultra Violet Can","product_brand":"Monster","current_price":4.3,"product_size":"500mL","url":"https://www.coles.com.au/product/8593020"},{"barcode":null,"product_name":"Energy Mango Loco Can","product_brand":"Monster","current_price":4.3,"product_size":"500mL","url":"https://www.coles.com.au/product/3290778"},{"barcode":null,"product_name":"Energy Drink Ultra 4x500ml","product_brand":"Monster","current_price":9.6,"product_size":"4 Pack","url":"https://www.coles.com.au/product/2785108"},{"barcode":null,"product_name":"Energy Drink Super Dry","product_brand":"Monster","current_price":2.8,"product_size":"500mL","url":"https://www.coles.com.au/product/6823286"},{"barcode":null,"product_name":"Energy Aussie Lemonade Can","product_brand":"Monster","current_price":4.3,"product_size":"500mL","url":"https://www.coles.com.au/product/1151012"},{"barcode":null,"product_name":"Energy Strawberry Cans 4X500Ml","product_brand":"Monster","current_price":9.6,"product_size":"2L","url":"https://www.coles.com.au/product/9961424"},{"barcode":null,"product_name":"Energy Drink Can Green","product_brand":"Monster","current_price":4.3,"product_size":"500mL","url":"https://www.coles.com.au/product/2787136"},{"barcode":null,"product_name":"Energy Drink Peachy Keen 4x500ml","product_brand":"Monster","current_price":9.6,"product_size":"4 pack","url":"https://www.coles.com.au/product/8592956"},{"barcode":null,"product_name":"Energy Can Drink Ultra Gold","product_brand":"Monster","current_price":4.3,"product_size":"500mL","url":"https://www.coles.com.au/product/5155220"},{"barcode":null,"product_name":"Energy Drink Ultra Ruby Red","product_brand":"Monster","current_price":4.3,"product_size":"500mL","url":"https://www.coles.com.au/product/9965141"},{"barcode":null,"product_name":"Energy Drink Zero Sugar Can","product_brand":"Monster","current_price":4.3,"product_size":"500mL","url":"https://www.coles.com.au/product/7717116"},{"barcode":null,"product_name":"Energy Drink Ultra Strawberry Can","product_brand":"Monster","current_price":4.3,"product_size":"500mL","url":"https://www.coles.com.au/product/7717127"},{"barcode":null,"product_name":"Energy Ultra Peachy Keen Can","product_brand":"Monster","current_price":4.3,"product_size":"500mL","url":"https://www.coles.com.au/product/6413422"},{"barcode":null,"product_name":"Energy Drink Ultra Gold Multipack Cans 4x500mL","product_brand":"Monster","current_price":9.1,"product_size":"4 pack","url":"https://www.coles.com.au/product/6013038"},{"barcode":null,"product_name":"Ultra Fiesta Mango Flavour Energy Drink Can","product_brand":"Monster","current_price":3.0,"product_size":"500mL","url":"https://www.coles.com.au/product/4402516"},{"barcode":null,"product_name":"Energy Green Multipack Cans 4 x 500ml","product_brand":"Monster","current_price":9.6,"product_size":"4 pack","url":"https://www.coles.com.au/product/2785094"},{"barcode":null,"product_name":"Zero Sugar Energy Drink Multipack Cans 4x500mL","product_brand":"Monster","current_price":9.6,"product_size":"4 pack","url":"https://www.coles.com.au/product/7717105"},{"barcode":null,"product_name":"Energy Mango Loco Multipack Cans 4 x 500mL","product_brand":"Monster","current_price":9.6,"product_size":"4 Pack","url":"https://www.coles.com.au/product/3290712"}],"total_results":238,"total_pages":12,"current_page":1}